PSI,Clicks,RiderWeightInPounds,SuspensionType.Name
81,16,100,Lefty Ocho
89,15,110,Lefty Ocho
97,14,120,Lefty Ocho
105,13,130,Lefty Ocho
112,11,140,Lefty Ocho
120,10,150,Lefty Ocho
128,9,160,Lefty Ocho
136,8,170,Lefty Ocho
143,7,180,Lefty Ocho
151,6,190,Lefty Ocho
159,5,200,Lefty Ocho
167,4,210,Lefty Ocho
174,3,220,Lefty Ocho
182,2,230,Lefty Ocho
110,-1,120,Lefty Oliver
120,-1,130,Lefty Oliver
130,-1,140,Lefty Oliver
140,-1,150,Lefty Oliver
150,-1,160,Lefty Oliver
160,-1,170,Lefty Oliver
170,-1,180,Lefty Oliver
180,-1,190,Lefty Oliver
190,-1,200,Lefty Oliver
200,-1,210,Lefty Oliver
210,-1,220,Lefty Oliver
220,-1,230,Lefty Oliver
70,11,100,Scalpel Si MY18 - Fox Float DPS
80,11,110,Scalpel Si MY18 - Fox Float DPS
89,10,120,Scalpel Si MY18 - Fox Float DPS
99,10,130,Scalpel Si MY18 - Fox Float DPS
109,9,140,Scalpel Si MY18 - Fox Float DPS
119,8,150,Scalpel Si MY18 - Fox Float DPS
129,8,160,Scalpel Si MY18 - Fox Float DPS
138,7,170,Scalpel Si MY18 - Fox Float DPS
148,7,180,Scalpel Si MY18 - Fox Float DPS
158,6,190,Scalpel Si MY18 - Fox Float DPS
168,5,200,Scalpel Si MY18 - Fox Float DPS
178,5,210,Scalpel Si MY18 - Fox Float DPS
187,4,220,Scalpel Si MY18 - Fox Float DPS
197,4,230,Scalpel Si MY18 - Fox Float DPS
62,8,100,Scalpel Si MY18 - Rockshox Monarch
71,8,110,Scalpel Si MY18 - Rockshox Monarch
80,7,120,Scalpel Si MY18 - Rockshox Monarch
89,7,130,Scalpel Si MY18 - Rockshox Monarch
98,6,140,Scalpel Si MY18 - Rockshox Monarch
107,6,150,Scalpel Si MY18 - Rockshox Monarch
116,5,160,Scalpel Si MY18 - Rockshox Monarch
125,5,170,Scalpel Si MY18 - Rockshox Monarch
134,4,180,Scalpel Si MY18 - Rockshox Monarch
143,4,190,Scalpel Si MY18 - Rockshox Monarch
152,3,200,Scalpel Si MY18 - Rockshox Monarch
161,3,210,Scalpel Si MY18 - Rockshox Monarch
170,2,220,Scalpel Si MY18 - Rockshox Monarch
179,2,230,Scalpel Si MY18 - Rockshox Monarch
93,11,100,Habit MY18 - Fox Float DPS
106,10,110,Habit MY18 - Fox Float DPS
119,10,120,Habit MY18 - Fox Float DPS
133,9,130,Habit MY18 - Fox Float DPS
146,9,140,Habit MY18 - Fox Float DPS
159,8,150,Habit MY18 - Fox Float DPS
172,7,160,Habit MY18 - Fox Float DPS
185,7,170,Habit MY18 - Fox Float DPS
198,6,180,Habit MY18 - Fox Float DPS
211,5,190,Habit MY18 - Fox Float DPS
224,5,200,Habit MY18 - Fox Float DPS
237,4,210,Habit MY18 - Fox Float DPS
250,3,220,Habit MY18 - Fox Float DPS
264,3,230,Habit MY18 - Fox Float DPS
92,7,100,Habit MY18 - RockShox Monarch
102,6,110,Habit MY18 - RockShox Monarch
112,6,120,Habit MY18 - RockShox Monarch
123,6,130,Habit MY18 - RockShox Monarch
133,5,140,Habit MY18 - RockShox Monarch
143,5,150,Habit MY18 - RockShox Monarch
153,4,160,Habit MY18 - RockShox Monarch
164,4,170,Habit MY18 - RockShox Monarch
174,3,180,Habit MY18 - RockShox Monarch
184,3,190,Habit MY18 - RockShox Monarch
194,3,200,Habit MY18 - RockShox Monarch
205,2,210,Habit MY18 - RockShox Monarch
215,2,220,Habit MY18 - RockShox Monarch
225,1,230,Habit MY18 - RockShox Monarch
73,6,100,Habit MY18 - X-Fusion O2
80,6,110,Habit MY18 - X-Fusion O2
87,5,120,Habit MY18 - X-Fusion O2
95,5,130,Habit MY18 - X-Fusion O2
102,4,140,Habit MY18 - X-Fusion O2
109,4,150,Habit MY18 - X-Fusion O2
116,4,160,Habit MY18 - X-Fusion O2
124,3,170,Habit MY18 - X-Fusion O2
131,3,180,Habit MY18 - X-Fusion O2
138,2,190,Habit MY18 - X-Fusion O2
145,2,200,Habit MY18 - X-Fusion O2
152,2,210,Habit MY18 - X-Fusion O2
160,1,220,Habit MY18 - X-Fusion O2
167,1,230,Habit MY18 - X-Fusion O2
187,9,120,Habit MY19 - Fox Float DPX2
201,8,130,Habit MY19 - Fox Float DPX2
214,7,140,Habit MY19 - Fox Float DPX2
228,6,150,Habit MY19 - Fox Float DPX2
241,6,160,Habit MY19 - Fox Float DPX2
254,5,170,Habit MY19 - Fox Float DPX2
268,4,180,Habit MY19 - Fox Float DPX2
281,3,190,Habit MY19 - Fox Float DPX2
294,3,200,Habit MY19 - Fox Float DPX2
308,2,210,Habit MY19 - Fox Float DPX2
321,1,220,Habit MY19 - Fox Float DPX2
334,0,230,Habit MY19 - Fox Float DPX2
162,10,120,Habit MY19 - Fox Float DPS
176,9,130,Habit MY19 - Fox Float DPS
190,8,140,Habit MY19 - Fox Float DPS
204,7,150,Habit MY19 - Fox Float DPS
218,6,160,Habit MY19 - Fox Float DPS
233,6,170,Habit MY19 - Fox Float DPS
247,5,180,Habit MY19 - Fox Float DPS
261,4,190,Habit MY19 - Fox Float DPS
276,3,200,Habit MY19 - Fox Float DPS
290,2,210,Habit MY19 - Fox Float DPS
304,1,220,Habit MY19 - Fox Float DPS
318,0,230,Habit MY19 - Fox Float DPS
196,12,120,TriggerJekyll MY18 - Fox Float DPX2
208,11,130,TriggerJekyll MY18 - Fox Float DPX2
220,10,140,TriggerJekyll MY18 - Fox Float DPX2
233,10,150,TriggerJekyll MY18 - Fox Float DPX2
245,9,160,TriggerJekyll MY18 - Fox Float DPX2
257,8,170,TriggerJekyll MY18 - Fox Float DPX2
269,7,180,TriggerJekyll MY18 - Fox Float DPX2
281,6,190,TriggerJekyll MY18 - Fox Float DPX2
293,6,200,TriggerJekyll MY18 - Fox Float DPX2
105,14,100,TriggerJekyll MY18 - Fox Float DPS
118,13,110,TriggerJekyll MY18 - Fox Float DPS
131,12,120,TriggerJekyll MY18 - Fox Float DPS
145,11,130,TriggerJekyll MY18 - Fox Float DPS
158,10,140,TriggerJekyll MY18 - Fox Float DPS
171,10,150,TriggerJekyll MY18 - Fox Float DPS
184,9,160,TriggerJekyll MY18 - Fox Float DPS
198,8,170,TriggerJekyll MY18 - Fox Float DPS
211,7,180,TriggerJekyll MY18 - Fox Float DPS
224,6,190,TriggerJekyll MY18 - Fox Float DPS
238,5,200,TriggerJekyll MY18 - Fox Float DPS
251,5,210,TriggerJekyll MY18 - Fox Float DPS
264,4,220,TriggerJekyll MY18 - Fox Float DPS
278,3,230,TriggerJekyll MY18 - Fox Float DPS
129,13,120,Jekyll 29 MY19 - Fox Float DPX2
143,12,130,Jekyll 29 MY19 - Fox Float DPX2
157,11,140,Jekyll 29 MY19 - Fox Float DPX2
171,10,150,Jekyll 29 MY19 - Fox Float DPX2
185,9,160,Jekyll 29 MY19 - Fox Float DPX2
199,7,170,Jekyll 29 MY19 - Fox Float DPX2
212,6,180,Jekyll 29 MY19 - Fox Float DPX2
226,5,190,Jekyll 29 MY19 - Fox Float DPX2
240,4,200,Jekyll 29 MY19 - Fox Float DPX2
254,3,210,Jekyll 29 MY19 - Fox Float DPX2
268,2,220,Jekyll 29 MY19 - Fox Float DPX2
282,1,230,Jekyll 29 MY19 - Fox Float DPX2
113,9,120,Jekyll 29 MY19 - Fox Float DPS
126,9,130,Jekyll 29 MY19 - Fox Float DPS
139,8,140,Jekyll 29 MY19 - Fox Float DPS
152,8,150,Jekyll 29 MY19 - Fox Float DPS
165,7,160,Jekyll 29 MY19 - Fox Float DPS
178,6,170,Jekyll 29 MY19 - Fox Float DPS
191,6,180,Jekyll 29 MY19 - Fox Float DPS
204,5,190,Jekyll 29 MY19 - Fox Float DPS
217,5,200,Jekyll 29 MY19 - Fox Float DPS
231,4,210,Jekyll 29 MY19 - Fox Float DPS
244,3,220,Jekyll 29 MY19 - Fox Float DPS
257,3,230,Jekyll 29 MY19 - Fox Float DPS
77,-1,120,Lefty 2.0
83,-1,130,Lefty 2.0
90,-1,140,Lefty 2.0
96,-1,150,Lefty 2.0
102,-1,160,Lefty 2.0
109,-1,170,Lefty 2.0
115,-1,180,Lefty 2.0
121,-1,190,Lefty 2.0
128,-1,200,Lefty 2.0
134,-1,210,Lefty 2.0
140,-1,220,Lefty 2.0